{
  "data": [{
      "_id": "5c596846e5959e511ce010fb",
      "title": "Lorem ipsum dolor sit amet, consectetur ?",
      "question": "Lorem ipsum dolor sit amet, consectetur adipisicing elit. Porro deleniti temporibus, ratione exercitationem voluptas eaque quos debitis eligendi, illum, doloremque laudantium corrupti? Expedita tempore aspernatur beatae dolore nobis vero praesentium.Lorem ipsum dolor sit amet, consectetur adipisicing elit. Porro deleniti temporibus, ratione exercitationem voluptas eaque quos debitis eligendi, illum, doloremque laudantium corrupti? Expedita tempore aspernatur beatae dolore nobis vero praesentium.",
      "created_at": "2018-05-18T06:14:29 -06:-30",
      "project": "project 3",
      "answers": [{
          "id": 0,
          "name": "Tanisha Walls",
          "likes": 0,
          "helped": false,
          "solved": false,
          "code": "li:nth-child(even){\nbackground: #666;\n}\nli:nth-child(odd){\nbackground: #fff;\n}\nli.select-group-item{\nbackground: #f00;\n}",
          "answer": "Lorem ipsum dolor sit amet, consectetur adipisicing elit. Porro deleniti temporibus, ratione exercitationem voluptas eaque quos debitis eligendi, illum, doloremque laudantium corrupti? Expedita tempore aspernatur beatae dolore nobis vero praesentium."
        },
        {
          "id": 1,
          "name": "Gentry Holman",
          "likes": 0,
          "helped": false,
          "solved": false,
          "answer": "Lorem ipsum dolor sit amet, consectetur adipisicing elit. Porro deleniti temporibus, ratione exercitationem voluptas eaque quos debitis eligendi, illum, doloremque laudantium corrupti? Expedita tempore aspernatur beatae dolore nobis vero praesentium."
        },
        {
          "id": 2,
          "name": "Alexandria Burks",
          "likes": 3,
          "helped": false,
          "solved": true,
          "code": "asdf",
          "answer": "Lorem ipsum dolor sit amet, consectetur adipisicing elit. Porro deleniti temporibus, ratione exercitationem voluptas eaque quos debitis eligendi, illum, doloremque laudantium corrupti? Expedita tempore aspernatur beatae dolore nobis vero praesentium."
        },
        {
          "id": 3,
          "name": "Carroll Goodman",
          "likes": 2,
          "helped": true,
          "solved": false,
          "answer": "Lorem ipsum dolor sit amet, consectetur adipisicing elit. Porro deleniti temporibus, ratione exercitationem voluptas eaque quos debitis eligendi, illum, doloremque laudantium corrupti? Expedita tempore aspernatur beatae dolore nobis vero praesentium."
        },
        {
          "id": 4,
          "name": "Ruiz Rush",
          "likes": 0,
          "helped": false,
          "solved": false,
          "answer": "Lorem ipsum dolor sit amet, consectetur adipisicing elit. Porro deleniti temporibus, ratione exercitationem voluptas eaque quos debitis eligendi, illum, doloremque laudantium corrupti? Expedita tempore aspernatur beatae dolore nobis vero praesentium."
        },
        {
          "id": 5,
          "name": "Glenna Howe",
          "likes": 0,
          "helped": false,
          "solved": false,
          "answer": "Lorem ipsum dolor sit amet, consectetur adipisicing elit. Porro deleniti temporibus, ratione exercitationem voluptas eaque quos debitis eligendi, illum, doloremque laudantium corrupti? Expedita tempore aspernatur beatae dolore nobis vero praesentium."
        }
      ],
      "tags": [
        "javascript",
        "reactjs",
        "HTML5",
        "CSS3"
      ],
      "code": "import React from 'react';\nimport ReactDOM from 'react-dom';",
      "status": 1,
      "views": 47,
      "tagged_people": [{
          "id": 0,
          "name": "Anastasia Cooley"
        },
        {
          "id": 1,
          "name": "Beck Blevins"
        },
        {
          "id": 2,
          "name": "Sandra Melton"
        },
        {
          "id": 3,
          "name": "Bridges Wiley"
        },
        {
          "id": 4,
          "name": "Gallegos Carr"
        },
        {
          "id": 5,
          "name": "Colon Merrill"
        }
      ]
    },
    {
      "_id": "5c596846edb176a1a7789bb8",
      "title": "Lorem ipsum dolor sit amet, consectetur ?",
      "question": "Lorem ipsum dolor sit amet, consectetur adipisicing elit. Porro deleniti temporibus, ratione exercitationem voluptas eaque quos debitis eligendi, illum, doloremque laudantium corrupti? Expedita tempore aspernatur beatae dolore nobis vero praesentium.",
      "created_at": "2015-02-01T05:18:30 -06:-30",
      "project": "project 2",
      "answers": [{
          "id": 0,
          "name": "Schroeder Fuentes",
          "likes": 0,
          "helped": false,
          "solved": false,
          "answer": "Lorem ipsum dolor sit amet, consectetur adipisicing elit. Porro deleniti temporibus, ratione exercitationem voluptas eaque quos debitis eligendi, illum, doloremque laudantium corrupti? Expedita tempore aspernatur beatae dolore nobis vero praesentium."
        },
        {
          "id": 1,
          "name": "Willis Boone",
          "likes": 0,
          "helped": false,
          "solved": false,
          "code": "asdf",
          "answer": "Lorem ipsum dolor sit amet, consectetur adipisicing elit. Porro deleniti temporibus, ratione exercitationem voluptas eaque quos debitis eligendi, illum, doloremque laudantium corrupti? Expedita tempore aspernatur beatae dolore nobis vero praesentium."
        },
        {
          "id": 2,
          "name": "Pearl Ellis",
          "likes": 5,
          "helped": true,
          "solved": false,
          "answer": "Lorem ipsum dolor sit amet, consectetur adipisicing elit. Porro deleniti temporibus, ratione exercitationem voluptas eaque quos debitis eligendi, illum, doloremque laudantium corrupti? Expedita tempore aspernatur beatae dolore nobis vero praesentium."
        },
        {
          "id": 3,
          "name": "Constance Orr",
          "likes": 18,
          "helped": false,
          "solved": true,
          "code": "asdf",
          "answer": "Lorem ipsum dolor sit amet, consectetur adipisicing elit. Porro deleniti temporibus, ratione exercitationem voluptas eaque quos debitis eligendi, illum, doloremque laudantium corrupti? Expedita tempore aspernatur beatae dolore nobis vero praesentium."
        },
        {
          "id": 4,
          "name": "Middleton Miller",
          "likes": 0,
          "helped": false,
          "solved": false,
          "answer": "Lorem ipsum dolor sit amet, consectetur adipisicing elit. Porro deleniti temporibus, ratione exercitationem voluptas eaque quos debitis eligendi, illum, doloremque laudantium corrupti? Expedita tempore aspernatur beatae dolore nobis vero praesentium."
        },
        {
          "id": 5,
          "name": "Wynn Lawrence",
          "likes": 0,
          "helped": false,
          "solved": false,
          "answer": "Lorem ipsum dolor sit amet, consectetur adipisicing elit. Porro deleniti temporibus, ratione exercitationem voluptas eaque quos debitis eligendi, illum, doloremque laudantium corrupti? Expedita tempore aspernatur beatae dolore nobis vero praesentium."
        }
      ],
      "tags": [
        "javascript",
        "reactjs",
        "HTML5",
        "CSS3"
      ],
      "code": "import React from 'react';\nimport ReactDOM from 'react-dom';",
      "status": 1,
      "views": 49,
      "tagged_people": [{
          "id": 0,
          "name": "Chambers Cox"
        },
        {
          "id": 1,
          "name": "Hooper Gentry"
        },
        {
          "id": 2,
          "name": "Key Gregory"
        },
        {
          "id": 3,
          "name": "Nichols Cantu"
        },
        {
          "id": 4,
          "name": "Fernandez Robinson"
        },
        {
          "id": 5,
          "name": "Marks Galloway"
        }
      ]
    },
    {
      "_id": "5c596846502cceb4dad5cc33",
      "title": "Lorem ipsum dolor sit amet, consectetur ?",
      "question": "Lorem ipsum dolor sit amet, consectetur adipisicing elit. Porro deleniti temporibus, ratione exercitationem voluptas eaque quos debitis eligendi, illum, doloremque laudantium corrupti? Expedita tempore aspernatur beatae dolore nobis vero praesentium.",
      "created_at": "2014-06-16T12:01:50 -06:-30",
      "project": "project 3",
      "answers": [{
          "id": 0,
          "name": "Bentley Mullins",
          "code": "asdf",
          "likes": 0,
          "helped": false,
          "solved": false,
          "answer": "Lorem ipsum dolor sit amet, consectetur adipisicing elit. Porro deleniti temporibus, ratione exercitationem voluptas eaque quos debitis eligendi, illum, doloremque laudantium corrupti? Expedita tempore aspernatur beatae dolore nobis vero praesentium."
        },
        {
          "id": 1,
          "name": "Bishop Lang",
          "likes": 12,
          "helped": true,
          "solved": false,
          "answer": "Lorem ipsum dolor sit amet, consectetur adipisicing elit. Porro deleniti temporibus, ratione exercitationem voluptas eaque quos debitis eligendi, illum, doloremque laudantium corrupti? Expedita tempore aspernatur beatae dolore nobis vero praesentium."
        },
        {
          "id": 2,
          "name": "Dotson Bell",
          "likes": 0,
          "helped": false,
          "solved": false,
          "answer": "Lorem ipsum dolor sit amet, consectetur adipisicing elit. Porro deleniti temporibus, ratione exercitationem voluptas eaque quos debitis eligendi, illum, doloremque laudantium corrupti? Expedita tempore aspernatur beatae dolore nobis vero praesentium."
        },
        {
          "id": 3,
          "name": "Eunice Hunter",
          "likes": 19,
          "helped": false,
          "solved": true,
          "answer": "Lorem ipsum dolor sit amet, consectetur adipisicing elit. Porro deleniti temporibus, ratione exercitationem voluptas eaque quos debitis eligendi, illum, doloremque laudantium corrupti? Expedita tempore aspernatur beatae dolore nobis vero praesentium."
        },
        {
          "id": 4,
          "name": "Castaneda Campos",
          "code": "asdf",
          "likes": 0,
          "helped": false,
          "solved": true,
          "answer": "Lorem ipsum dolor sit amet, consectetur adipisicing elit. Porro deleniti temporibus, ratione exercitationem voluptas eaque quos debitis eligendi, illum, doloremque laudantium corrupti? Expedita tempore aspernatur beatae dolore nobis vero praesentium."
        },
        {
          "id": 5,
          "name": "Shelby Wolfe",
          "likes": 11,
          "helped": true,
          "solved": false,
          "answer": "Lorem ipsum dolor sit amet, consectetur adipisicing elit. Porro deleniti temporibus, ratione exercitationem voluptas eaque quos debitis eligendi, illum, doloremque laudantium corrupti? Expedita tempore aspernatur beatae dolore nobis vero praesentium."
        }
      ],
      "tags": [
        "javascript",
        "reactjs",
        "HTML5",
        "CSS3"
      ],
      "code": "import React from 'react';\nimport ReactDOM from 'react-dom';",
      "status": 0,
      "views": 46,
      "tagged_people": [{
          "id": 0,
          "name": "Alma Santos"
        },
        {
          "id": 1,
          "name": "Juana Pena"
        },
        {
          "id": 2,
          "name": "Savage Stephens"
        },
        {
          "id": 3,
          "name": "Vega Holmes"
        },
        {
          "id": 4,
          "name": "Montgomery Garza"
        },
        {
          "id": 5,
          "name": "Mcmahon Peck"
        }
      ]
    },
    {
      "_id": "5c596846a82cfc86f00b3100",
      "title": "Lorem ipsum dolor sit amet, consectetur ?",
      "question": "Lorem ipsum dolor sit amet, consectetur adipisicing elit. Porro deleniti temporibus, ratione exercitationem voluptas eaque quos debitis eligendi, illum, doloremque laudantium corrupti? Expedita tempore aspernatur beatae dolore nobis vero praesentium.",
      "created_at": "2014-10-11T06:45:30 -06:-30",
      "project": "project 1",
      "answers": [{
          "id": 0,
          "name": "Katina Dixon",
          "likes": 0,
          "code": "import React from 'react';\nimport ReactDOM from 'react-dom';",
          "helped": false,
          "solved": false,
          "answer": "Lorem ipsum dolor sit amet, consectetur adipisicing elit. Porro deleniti temporibus, ratione exercitationem voluptas eaque quos debitis eligendi, illum, doloremque laudantium corrupti? Expedita tempore aspernatur beatae dolore nobis vero praesentium."
        },
        {
          "id": 1,
          "name": "Wong Bridges",
          "likes": 0,
          "helped": true,
          "solved": false,
          "answer": "Lorem ipsum dolor sit amet, consectetur adipisicing elit. Porro deleniti temporibus, ratione exercitationem voluptas eaque quos debitis eligendi, illum, doloremque laudantium corrupti? Expedita tempore aspernatur beatae dolore nobis vero praesentium."
        },
        {
          "id": 2,
          "name": "Bobbie Vaughan",
          "likes": 0,
          "code": "import React from 'react';\nimport ReactDOM from 'react-dom';",
          "helped": false,
          "solved": true,
          "answer": "Lorem ipsum dolor sit amet, consectetur adipisicing elit. Porro deleniti temporibus, ratione exercitationem voluptas eaque quos debitis eligendi, illum, doloremque laudantium corrupti? Expedita tempore aspernatur beatae dolore nobis vero praesentium."
        },
        {
          "id": 3,
          "name": "Bell Whitney",
          "likes": 0,
          "helped": false,
          "solved": false,
          "answer": "Lorem ipsum dolor sit amet, consectetur adipisicing elit. Porro deleniti temporibus, ratione exercitationem voluptas eaque quos debitis eligendi, illum, doloremque laudantium corrupti? Expedita tempore aspernatur beatae dolore nobis vero praesentium."
        },
        {
          "id": 4,
          "name": "Mclaughlin Alexander",
          "likes": 0,
          "helped": false,
          "solved": false,
          "code": "import React from 'react';\nimport ReactDOM from 'react-dom';",
          "answer": "Lorem ipsum dolor sit amet, consectetur adipisicing elit. Porro deleniti temporibus, ratione exercitationem voluptas eaque quos debitis eligendi, illum, doloremque laudantium corrupti? Expedita tempore aspernatur beatae dolore nobis vero praesentium."
        },
        {
          "id": 5,
          "name": "Merle Nelson",
          "likes": 0,
          "helped": false,
          "solved": false,
          "answer": "Lorem ipsum dolor sit amet, consectetur adipisicing elit. Porro deleniti temporibus, ratione exercitationem voluptas eaque quos debitis eligendi, illum, doloremque laudantium corrupti? Expedita tempore aspernatur beatae dolore nobis vero praesentium."
        }
      ],
      "tags": [
        "javascript",
        "reactjs",
        "HTML5",
        "CSS3"
      ],
      "code": "import React from 'react';\nimport ReactDOM from 'react-dom';",
      "status": 1,
      "views": 35,
      "tagged_people": [{
          "id": 0,
          "name": "Mai Shannon"
        },
        {
          "id": 1,
          "name": "Collins Chavez"
        },
        {
          "id": 2,
          "name": "Harding Freeman"
        },
        {
          "id": 3,
          "name": "Dorthy Silva"
        },
        {
          "id": 4,
          "name": "Hubbard Donaldson"
        },
        {
          "id": 5,
          "name": "Wooten Franco"
        }
      ]
    },
    {
      "_id": "5c5968467d4de51b445f1fdd",
      "title": "Lorem ipsum dolor sit amet, consectetur ?",
      "question": "Lorem ipsum dolor sit amet, consectetur adipisicing elit. Porro deleniti temporibus, ratione exercitationem voluptas eaque quos debitis eligendi, illum, doloremque laudantium corrupti? Expedita tempore aspernatur beatae dolore nobis vero praesentium.",
      "created_at": "2015-07-05T11:25:47 -06:-30",
      "project": "project 2",
      "answers": [{
          "id": 0,
          "name": "Oneill Henderson",
          "likes": 0,
          "helped": false,
          "solved": false,
          "answer": "Lorem ipsum dolor sit amet, consectetur adipisicing elit. Porro deleniti temporibus, ratione exercitationem voluptas eaque quos debitis eligendi, illum, doloremque laudantium corrupti? Expedita tempore aspernatur beatae dolore nobis vero praesentium."
        },
        {
          "id": 1,
          "name": "Noelle Ortiz",
          "likes": 0,
          "helped": false,
          "solved": false,
          "answer": "Lorem ipsum dolor sit amet, consectetur adipisicing elit. Porro deleniti temporibus, ratione exercitationem voluptas eaque quos debitis eligendi, illum, doloremque laudantium corrupti? Expedita tempore aspernatur beatae dolore nobis vero praesentium."
        },
        {
          "id": 2,
          "name": "Chen Steele",
          "likes": 0,
          "helped": true,
          "solved": false,
          "answer": "Lorem ipsum dolor sit amet, consectetur adipisicing elit. Porro deleniti temporibus, ratione exercitationem voluptas eaque quos debitis eligendi, illum, doloremque laudantium corrupti? Expedita tempore aspernatur beatae dolore nobis vero praesentium."
        },
        {
          "id": 3,
          "name": "Hahn Cleveland",
          "likes": 0,
          "helped": false,
          "solved": false,
          "answer": "Lorem ipsum dolor sit amet, consectetur adipisicing elit. Porro deleniti temporibus, ratione exercitationem voluptas eaque quos debitis eligendi, illum, doloremque laudantium corrupti? Expedita tempore aspernatur beatae dolore nobis vero praesentium."
        },
        {
          "id": 4,
          "name": "Madden Russell",
          "likes": 0,
          "helped": false,
          "solved": true,
          "code": "import React from 'react';\nimport ReactDOM from 'react-dom';",
          "answer": "Lorem ipsum dolor sit amet, consectetur adipisicing elit. Porro deleniti temporibus, ratione exercitationem voluptas eaque quos debitis eligendi, illum, doloremque laudantium corrupti? Expedita tempore aspernatur beatae dolore nobis vero praesentium."
        },
        {
          "id": 5,
          "name": "Frederick Marshall",
          "likes": 0,
          "helped": false,
          "solved": false,
          "answer": "Lorem ipsum dolor sit amet, consectetur adipisicing elit. Porro deleniti temporibus, ratione exercitationem voluptas eaque quos debitis eligendi, illum, doloremque laudantium corrupti? Expedita tempore aspernatur beatae dolore nobis vero praesentium."
        }
      ],
      "tags": [
        "javascript",
        "reactjs",
        "HTML5",
        "CSS3"
      ],
      "code": "import React from 'react';\nimport ReactDOM from 'react-dom';",
      "status": 1,
      "views": 48,
      "tagged_people": [{
          "id": 0,
          "name": "Nicholson Yang"
        },
        {
          "id": 1,
          "name": "Peggy Blanchard"
        },
        {
          "id": 2,
          "name": "Mabel Pruitt"
        },
        {
          "id": 3,
          "name": "Cecilia Goodwin"
        },
        {
          "id": 4,
          "name": "Lopez Gonzalez"
        },
        {
          "id": 5,
          "name": "Kathleen Shields"
        }
      ]
    },
    {
      "_id": "5c596846658b5cecec2f4935",
      "title": "Lorem ipsum dolor sit amet, consectetur ?",
      "question": "Lorem ipsum dolor sit amet, consectetur adipisicing elit. Porro deleniti temporibus, ratione exercitationem voluptas eaque quos debitis eligendi, illum, doloremque laudantium corrupti? Expedita tempore aspernatur beatae dolore nobis vero praesentium.",
      "created_at": "2019-01-03T09:19:31 -06:-30",
      "project": "project 1",
      "answers": [{
          "id": 0,
          "name": "Anne Bond",
          "likes": 0,
          "helped": false,
          "solved": false,
          "answer": "Lorem ipsum dolor sit amet, consectetur adipisicing elit. Porro deleniti temporibus, ratione exercitationem voluptas eaque quos debitis eligendi, illum, doloremque laudantium corrupti? Expedita tempore aspernatur beatae dolore nobis vero praesentium."
        },
        {
          "id": 1,
          "name": "Fowler Leach",
          "likes": 0,
          "helped": true,
          "solved": false,
          "answer": "Lorem ipsum dolor sit amet, consectetur adipisicing elit. Porro deleniti temporibus, ratione exercitationem voluptas eaque quos debitis eligendi, illum, doloremque laudantium corrupti? Expedita tempore aspernatur beatae dolore nobis vero praesentium."
        },
        {
          "id": 2,
          "name": "Thomas Lynch",
          "likes": 0,
          "helped": true,
          "solved": false,
          "code": "import React from 'react';\nimport ReactDOM from 'react-dom';",
          "answer": "Lorem ipsum dolor sit amet, consectetur adipisicing elit. Porro deleniti temporibus, ratione exercitationem voluptas eaque quos debitis eligendi, illum, doloremque laudantium corrupti? Expedita tempore aspernatur beatae dolore nobis vero praesentium."
        },
        {
          "id": 3,
          "name": "Barbara Bullock",
          "likes": 0,
          "helped": false,
          "solved": true,
          "answer": "Lorem ipsum dolor sit amet, consectetur adipisicing elit. Porro deleniti temporibus, ratione exercitationem voluptas eaque quos debitis eligendi, illum, doloremque laudantium corrupti? Expedita tempore aspernatur beatae dolore nobis vero praesentium."
        },
        {
          "id": 4,
          "name": "Hess Mayer",
          "likes": 0,
          "helped": true,
          "solved": false,
          "answer": "Lorem ipsum dolor sit amet, consectetur adipisicing elit. Porro deleniti temporibus, ratione exercitationem voluptas eaque quos debitis eligendi, illum, doloremque laudantium corrupti? Expedita tempore aspernatur beatae dolore nobis vero praesentium."
        },
        {
          "id": 5,
          "name": "Cara Hinton",
          "likes": 0,
          "helped": false,
          "solved": false,
          "answer": "Lorem ipsum dolor sit amet, consectetur adipisicing elit. Porro deleniti temporibus, ratione exercitationem voluptas eaque quos debitis eligendi, illum, doloremque laudantium corrupti? Expedita tempore aspernatur beatae dolore nobis vero praesentium."
        }
      ],
      "tags": [
        "javascript",
        "reactjs",
        "HTML5",
        "CSS3"
      ],
      "code": "import React from 'react';\nimport ReactDOM from 'react-dom';",
      "status": 0,
      "views": 23,
      "tagged_people": [{
          "id": 0,
          "name": "Tisha Murphy"
        },
        {
          "id": 1,
          "name": "Monica Schultz"
        },
        {
          "id": 2,
          "name": "Grimes Gamble"
        },
        {
          "id": 3,
          "name": "Kathrine Mcdowell"
        },
        {
          "id": 4,
          "name": "Reid Fitzpatrick"
        },
        {
          "id": 5,
          "name": "Sue Fisher"
        }
      ]
    },
    {
      "_id": "5c5968460c92401861527a3e",
      "title": "Lorem ipsum dolor sit amet, consectetur ?",
      "question": "Lorem ipsum dolor sit amet, consectetur adipisicing elit. Porro deleniti temporibus, ratione exercitationem voluptas eaque quos debitis eligendi, illum, doloremque laudantium corrupti? Expedita tempore aspernatur beatae dolore nobis vero praesentium.",
      "created_at": "2014-11-28T12:43:12 -06:-30",
      "project": "project 2",
      "answers": [{
          "id": 0,
          "name": "Wilder Holt",
          "likes": 0,
          "code": "asdf",
          "helped": true,
          "solved": false,
          "answer": "Lorem ipsum dolor sit amet, consectetur adipisicing elit. Porro deleniti temporibus, ratione exercitationem voluptas eaque quos debitis eligendi, illum, doloremque laudantium corrupti? Expedita tempore aspernatur beatae dolore nobis vero praesentium."
        },
        {
          "id": 1,
          "name": "Twila Bright",
          "likes": 0,
          "helped": false,
          "solved": false,
          "answer": "Lorem ipsum dolor sit amet, consectetur adipisicing elit. Porro deleniti temporibus, ratione exercitationem voluptas eaque quos debitis eligendi, illum, doloremque laudantium corrupti? Expedita tempore aspernatur beatae dolore nobis vero praesentium."
        },
        {
          "id": 2,
          "name": "Welch Norman",
          "likes": 0,
          "helped": false,
          "solved": false,
          "code": "import React from 'react';\nimport ReactDOM from 'react-dom';",
          "answer": "Lorem ipsum dolor sit amet, consectetur adipisicing elit. Porro deleniti temporibus, ratione exercitationem voluptas eaque quos debitis eligendi, illum, doloremque laudantium corrupti? Expedita tempore aspernatur beatae dolore nobis vero praesentium."
        },
        {
          "id": 3,
          "name": "Annie Ballard",
          "likes": 0,
          "helped": false,
          "solved": false,
          "answer": "Lorem ipsum dolor sit amet, consectetur adipisicing elit. Porro deleniti temporibus, ratione exercitationem voluptas eaque quos debitis eligendi, illum, doloremque laudantium corrupti? Expedita tempore aspernatur beatae dolore nobis vero praesentium."
        },
        {
          "id": 4,
          "name": "Nikki Valencia",
          "likes": 0,
          "helped": false,
          "solved": false,
          "answer": "Lorem ipsum dolor sit amet, consectetur adipisicing elit. Porro deleniti temporibus, ratione exercitationem voluptas eaque quos debitis eligendi, illum, doloremque laudantium corrupti? Expedita tempore aspernatur beatae dolore nobis vero praesentium."
        },
        {
          "id": 5,
          "name": "Deanna Ball",
          "likes": 0,
          "helped": false,
          "solved": false,
          "answer": "Lorem ipsum dolor sit amet, consectetur adipisicing elit. Porro deleniti temporibus, ratione exercitationem voluptas eaque quos debitis eligendi, illum, doloremque laudantium corrupti? Expedita tempore aspernatur beatae dolore nobis vero praesentium."
        }
      ],
      "tags": [
        "javascript",
        "reactjs",
        "HTML5",
        "CSS3"
      ],
      "code": "import React from 'react';\nimport ReactDOM from 'react-dom';",
      "status": 0,
      "views": 19,
      "tagged_people": [{
          "id": 0,
          "name": "Whitfield Bolton"
        },
        {
          "id": 1,
          "name": "Lucinda Richards"
        },
        {
          "id": 2,
          "name": "Clements Beasley"
        },
        {
          "id": 3,
          "name": "Hawkins Dalton"
        },
        {
          "id": 4,
          "name": "Cassandra Hebert"
        },
        {
          "id": 5,
          "name": "Berta Delacruz"
        }
      ]
    }
  ]

}
