{
  "hradmin" : [
    {
      "id": "5c596846e5959e511ce010fb",
      "title" : "Request to fill up the medical insurance",
      "description" : "lorem ipsum lorem ipsum lorem ipsum ",
      "date":"09-02-2019"
    }
  ]
}
