[
    {
        "id":1,
        "name":"HTML"
    },
    {
        "id":2,
        "name":"CSS"
    },
    {
        "id":3,
        "name":"Java Script"
    },
    {
        "id":4,
        "name":"Angular Js"
    },
    {
        "id":5,
        "name":"React Js"
    },
    {
        "id":6,
        "name":"Jquery"
    }
]
